%YAML 1.1
%TAG !u! tag:unity3d.com,2011:
--- !u!114 &11400000
MonoBehaviour:
  m_ObjectHideFlags: 0
  m_PrefabParentObject: {fileID: 0}
  m_PrefabInternal: {fileID: 0}
  m_GameObject: {fileID: 0}
  m_Enabled: 1
  m_EditorHideFlags: 0
  m_Script: {fileID: 11500000, guid: e100f06cadcceec4abf1f70a0d8a7c81, type: 3}
  m_Name: JumpState
  m_EditorClassIdentifier: 
  Actions:
  - {fileID: 11400000, guid: d31b6df0169a0ae4c95c8bf8169a3fd8, type: 2}
  - {fileID: 11400000, guid: 6aed1129b2fec304a9f25549a26dab1e, type: 2}
  Transitions:
  - Decision: {fileID: 11400000, guid: 3c009e75168bdea4ba6c2643bcbd3247, type: 2}
    TrueState: {fileID: 11400000, guid: 57cbc8fdb870bd345b69f365f585b316, type: 2}
